2012-04-19 15:44:04,205 EDT [pool-2-thread-1] INFO [org.jasig.cas.web.flow.AuthenticationViaFormAction]: FormObjectClass not set.  Using default class of org.jasig.cas.authentication.principal.UsernamePasswordCredentials with formObjectName credentials and validator org.jasig.cas.validation.UsernamePasswordCredentialsValidator.
2012-04-19 15:44:23,651 EDT [scheduler_Worker-9] INFO [org.jasig.cas.ticket.registry.support.DefaultTicketRegistryCleaner]: Starting cleaning of expired tickets from ticket registry at [Thu Apr 19 15:44:23 EDT 2012]
2012-04-19 15:44:23,652 EDT [scheduler_Worker-9] INFO [org.jasig.cas.ticket.registry.support.DefaultTicketRegistryCleaner]: 0 found to be removed.  Removing now.
2012-04-19 15:44:23,653 EDT [scheduler_Worker-9] INFO [org.jasig.cas.ticket.registry.support.DefaultTicketRegistryCleaner]: Finished cleaning of expired tickets from ticket registry at [Thu Apr 19 15:44:23 EDT 2012]
